…
``` r
data
```

    ## Source: local data table [1,800 x 20]
    ## 
    ## # A tibble: 1,800 x 20
    ##      pNo condition congruency  wordShown correctResp trialnum resp     acc
    ##    <int> <chr>     <chr>       <chr>     <chr>          <int> <chr>  <int>
    ##  1     5 control   incongruent yellow    blue               1 yellow     0
    ##  2     5 control   congruent   blue      blue               2 blue       1
    ##  3     5 control   congruent   blue      blue               3 blue       1
    ##  4     5 control   congruent   yellow    yellow             4 yellow     1
    ##  5     5 control   congruent   yellow    yellow             5 yellow     1
    ##  6     5 control   incongruent blue      red                6 red        1
    ##  7     5 control   congruent   red       red                7 red        1
    ##  8     5 control   incongruent blue      yellow             8 blue       0
    ##  9     5 control   congruent   red       red                9 red        1
    ## 10     5 control   congruent   red       red               10 red        1
    ## # ... with 1,790 more rows, and 12 more variables: rt <int>,
    ## #   include <int>, mentaldemand <dbl>, effort <dbl>, frustration <dbl>,
    ## #   bored <dbl>, fatigue <dbl>, acs <dbl>, implicitWillpower <dbl>,
    ## #   bigFiveCon <dbl>, bsc <dbl>, srsq <dbl>
…
