…
Read data (Qualtrics survey data)
---------------------------------

Here's a raw dataset collected using Qualtrics

``` r
df1 <- tbl_dt(fread("./Data/qualtricsSurvey.csv"))
df1
```

    ## Source: local data table [277 x 41]
    ## 
    ## # A tibble: 277 x 41
    ##    V1     V2     V3    V4    V5    V6    V7    V8    V9    V10   condition
    ##    <chr>  <chr>  <chr> <chr> <chr> <chr> <chr> <chr> <chr> <chr> <chr>    
    ##  1 Respo… Respo… Name  Exte… Emai… IPAd… Stat… Star… EndD… Fini… condition
    ##  2 R_1eC… Defau… Anon… ""    ""    139.… 0     2015… 2015… 1     control  
    ##  3 R_DNW… Defau… Anon… ""    ""    82.6… 0     2015… 2015… 1     control  
    ##  4 R_1Oj… Defau… Anon… ""    ""    82.2… 0     2015… 2015… 1     interven…
    ##  5 R_egk… Defau… Anon… ""    ""    82.6… 0     2015… 2015… 1     interven…
    ##  6 R_1Qo… Defau… Anon… ""    ""    81.1… 0     2015… 2015… 1     control  
    ##  7 R_6Pu… Defau… Anon… ""    ""    139.… 0     2015… 2015… 1     control  
    ##  8 R_1dd… Defau… Anon… ""    ""    86.1… 0     2015… 2015… 1     interven…
    ##  9 R_ZBR… Defau… Anon… ""    ""    86.1… 0     2015… 2015… 1     interven…
    ## 10 R_24i… Defau… Anon… ""    ""    31.5… 0     2015… 2015… 1     interven…
    ## # ... with 267 more rows, and 30 more variables: InterInfo <chr>,
    ## #   consentI <chr>, ContrInfo <chr>, consentC <chr>, Q9 <chr>, id <chr>,
    ## #   Q10 <chr>, MalleableC_1 <chr>, MalleableC_2 <chr>, MalleableC_3 <chr>,
    ## #   MalleableC_4 <chr>, Expect_1 <chr>, Expect_2 <chr>, Expect_3 <chr>,
    ## #   ImplicitB_1 <chr>, ImplicitB_2 <chr>, ImplicitB_3 <chr>,
    ## #   ImplicitB_4 <chr>, ImplicitB_5 <chr>, ImplicitB_6 <chr>,
    ## #   Workload_1 <chr>, Workload_2 <chr>, Workload_3 <chr>,
    ## #   Workload_4 <chr>, Workload_5 <chr>, Workload_6 <chr>, Q10 <chr>,
    ## #   LocationLatitude <chr>, LocationLongitude <chr>,
…
With Qualtrics datasets, the first row (or even first few rows) of the dataset might contain irrelevant variables and information. If they contain extra rows, do the following to get rid of rows (commented out for now). But play with your dataset to see which rows you should remove.

In this example, row 1 contains extra data (the actual questions themselves), so we're removing it.

``` r
df1 <- tbl_dt(fread("./Data/qualtricsSurvey.csv"))[-1] # delete row 1
# df1 <- tbl_dt(fread("./Data/qualtricsSurvey.csv"))[-c(1:5)] # delete rows 1:5 (example)
df1
```

    ## Source: local data table [276 x 41]
    ## 
    ## # A tibble: 276 x 41
    ##    V1     V2     V3    V4    V5    V6    V7    V8    V9    V10   condition
    ##    <chr>  <chr>  <chr> <chr> <chr> <chr> <chr> <chr> <chr> <chr> <chr>    
    ##  1 R_1eC… Defau… Anon… ""    ""    139.… 0     2015… 2015… 1     control  
    ##  2 R_DNW… Defau… Anon… ""    ""    82.6… 0     2015… 2015… 1     control  
    ##  3 R_1Oj… Defau… Anon… ""    ""    82.2… 0     2015… 2015… 1     interven…
    ##  4 R_egk… Defau… Anon… ""    ""    82.6… 0     2015… 2015… 1     interven…
    ##  5 R_1Qo… Defau… Anon… ""    ""    81.1… 0     2015… 2015… 1     control  
    ##  6 R_6Pu… Defau… Anon… ""    ""    139.… 0     2015… 2015… 1     control  
    ##  7 R_1dd… Defau… Anon… ""    ""    86.1… 0     2015… 2015… 1     interven…
    ##  8 R_ZBR… Defau… Anon… ""    ""    86.1… 0     2015… 2015… 1     interven…
    ##  9 R_24i… Defau… Anon… ""    ""    31.5… 0     2015… 2015… 1     interven…
    ## 10 R_3KB… Defau… Anon… ""    ""    139.… 0     2015… 2015… 1     interven…
    ## # ... with 266 more rows, and 30 more variables: InterInfo <chr>,
    ## #   consentI <chr>, ContrInfo <chr>, consentC <chr>, Q9 <chr>, id <chr>,
    ## #   Q10 <chr>, MalleableC_1 <chr>, MalleableC_2 <chr>, MalleableC_3 <chr>,
    ## #   MalleableC_4 <chr>, Expect_1 <chr>, Expect_2 <chr>, Expect_3 <chr>,
    ## #   ImplicitB_1 <chr>, ImplicitB_2 <chr>, ImplicitB_3 <chr>,
    ## #   ImplicitB_4 <chr>, ImplicitB_5 <chr>, ImplicitB_6 <chr>,
    ## #   Workload_1 <chr>, Workload_2 <chr>, Workload_3 <chr>,
    ## #   Workload_4 <chr>, Workload_5 <chr>, Workload_6 <chr>, Q10 <chr>,
    ## #   LocationLatitude <chr>, LocationLongitude <chr>,
…
Select questionnaire items for relability analysis
--------------------------------------------------

-   use `select()` and `starts_with`, `matches()`, `contains()`, and `ends_with()` to select questionanire items for a scale

``` r
scale_implicitBeliefs <- select(df1, starts_with("ImplicitB"))
scale_implicitBeliefs
```

    ## Source: local data table [276 x 6]
    ## 
    ## # A tibble: 276 x 6
    ##    ImplicitB_1 ImplicitB_2 ImplicitB_3 ImplicitB_4 ImplicitB_5 ImplicitB_6
    ##    <chr>       <chr>       <chr>       <chr>       <chr>       <chr>      
    ##  1 1           1           6           6           4           6          
    ##  2 6           6           3           2           6           2          
    ##  3 6           6           2           3           4           4          
    ##  4 4           3           2           3           2           4          
    ##  5 3           3           4           4           3           4          
    ##  6 6           6           1           1           6           1          
    ##  7 4           5           2           2           5           2          
    ##  8 5           4           4           4           1           5          
    ##  9 5           5           4           4           5           4          
    ## 10 4           3           2           3           3           3          
    ## # ... with 266 more rows
…
I usually prefer to convert column classes using `data.table` syntax using `.SD` (*S*ubset of *D*atatable). Below, it's just saying, for every column in the `data.table`, convert it to numeric by applying the `as.numeric()` function to every column.

``` r
scale_implicitBeliefsNumeric <- scale_implicitBeliefs[, lapply(.SD, as.numeric)]
scale_implicitBeliefsNumeric
```

    ## Source: local data table [276 x 6]
    ## 
    ## # A tibble: 276 x 6
    ##    ImplicitB_1 ImplicitB_2 ImplicitB_3 ImplicitB_4 ImplicitB_5 ImplicitB_6
    ##          <dbl>       <dbl>       <dbl>       <dbl>       <dbl>       <dbl>
    ##  1           1           1           6           6           4           6
    ##  2           6           6           3           2           6           2
    ##  3           6           6           2           3           4           4
    ##  4           4           3           2           3           2           4
    ##  5           3           3           4           4           3           4
    ##  6           6           6           1           1           6           1
    ##  7           4           5           2           2           5           2
    ##  8           5           4           4           4           1           5
    ##  9           5           5           4           4           5           4
    ## 10           4           3           2           3           3           3
    ## # ... with 266 more rows
…
Select data. Make sure the first column is subject id, and subsequent columns are items for a specific scale

-   select id column (required)
-   select items of a particular scale

``` r
scale_implicitBeliefs <- select(df1, id, starts_with("ImplicitB"))
scale_implicitBeliefs
```

    ## Source: local data table [276 x 7]
    ## 
    ## # A tibble: 276 x 7
    ##       id ImplicitB_1 ImplicitB_2 ImplicitB_3 ImplicitB_4 ImplicitB_5
    ##    <dbl> <chr>       <chr>       <chr>       <chr>       <chr>      
    ##  1     1 1           1           6           6           4          
    ##  2     2 6           6           3           2           6          
    ##  3     3 6           6           2           3           4          
    ##  4     4 4           3           2           3           2          
    ##  5     5 3           3           4           4           3          
    ##  6     6 6           6           1           1           6          
    ##  7     7 4           5           2           2           5          
    ##  8     8 5           4           4           4           1          
    ##  9     9 5           5           4           4           5          
    ## 10    10 4           3           2           3           3          
    ## # ... with 266 more rows, and 1 more variable: ImplicitB_6 <chr>

Convert all columns to numeric

``` r
scale_implicitBeliefs <- scale_implicitBeliefs[, lapply(.SD, as.numeric)]
scale_implicitBeliefs
```

    ## Source: local data table [276 x 7]
    ## 
    ## # A tibble: 276 x 7
    ##       id ImplicitB_1 ImplicitB_2 ImplicitB_3 ImplicitB_4 ImplicitB_5
    ##    <dbl>       <dbl>       <dbl>       <dbl>       <dbl>       <dbl>
    ##  1     1           1           1           6           6           4
    ##  2     2           6           6           3           2           6
    ##  3     3           6           6           2           3           4
    ##  4     4           4           3           2           3           2
    ##  5     5           3           3           4           4           3
    ##  6     6           6           6           1           1           6
    ##  7     7           4           5           2           2           5
    ##  8     8           5           4           4           4           1
    ##  9     9           5           5           4           4           5
    ## 10    10           4           3           2           3           3
    ## # ... with 266 more rows, and 1 more variable: ImplicitB_6 <dbl>
…
    ## [1] "wide"        "long"        "reliability"

It contains the wide data, long data, and reliability results. To subset lists, use `$` to extract by name.

Get wide data: id variable, scale overall mean, and all subscale means

``` r
scale_implicitBeliefs_clean$wide
```

    ## Source: local data table [276 x 4]
    ## 
    ## # A tibble: 276 x 4
    ##       id implicitBeliefs_m_overall implicitBeliefs_m_… implicitBeliefs_m_…
    ##  * <dbl>                     <dbl>               <dbl>               <dbl>
    ##  1     1                      5.5                 5                   6   
    ##  2     2                      1.67                1.67                1.67
    ##  3     3                      2.33                2                   2.67
    ##  4     4                      3.5                 3.33                3.67
    ##  5     5                      4                   4                   4   
    ##  6     6                      1                   1                   1   
    ##  7     7                      2.17                2.33                2   
    ##  8     8                      4                   4                   4   
    ##  9     9                      3                   2.67                3.33
    ## 10    10                      3.17                3                   3.33
    ## # ... with 266 more rows

Get long data: id variable, scale/subscale means (\_m), standard deviations (\_stdev), and range (\_rge)

``` r
scale_implicitBeliefs_clean$long
```

    ## Source: local data table [828 x 6]
    ## 
    ## # A tibble: 828 x 6
    ##       id implicitBeliefs_m implicitBeliefs_stdev implicitBeliefs_rge
    ##    <dbl>             <dbl>                 <dbl>               <dbl>
    ##  1     1              5.5                  1.22                    3
    ##  2     1              5                    1.73                    3
    ##  3     1              6                    0                       0
    ##  4     2              1.67                 0.816                   2
    ##  5     2              1.67                 1.15                    2
    ##  6     2              1.67                 0.577                   1
    ##  7     3              2.33                 1.21                    3
    ##  8     3              2                    1                       2
    ##  9     3              2.67                 1.53                    3
    ## 10     4              3.5                  1.05                    3
    ## # ... with 818 more rows, and 2 more variables:
    ## #   implicitBeliefs_items <int>, implicitBeliefs_subscale <chr>
…
Select data. Make sure the first column is subject id, and subsequent columns are items for a specific scale

-   select id column (required)
-   select items of a particular scale

``` r
scale_workload <- select(df1, id, starts_with("Workload"))
scale_workload
```

    ## Source: local data table [276 x 7]
    ## 
    ## # A tibble: 276 x 7
    ##       id Workload_1 Workload_2 Workload_3 Workload_4 Workload_5 Workload_6
    ##    <dbl> <chr>      <chr>      <chr>      <chr>      <chr>      <chr>     
    ##  1     1 16         12         17         14         16         19        
    ##  2     2 18         18         10         19         11         13        
    ##  3     3 12         2          8          16         17         2         
    ##  4     4 15         8          2          16         20         2         
    ##  5     5 5          1          7          21         5          3         
    ##  6     6 10         1          1          9          7          13        
    ##  7     7 11         1          7          11         15         1         
    ##  8     8 10         3          3          21         10         3         
    ##  9     9 14         13         5          21         12         3         
    ## 10    10 16         12         10         17         16         4         
    ## # ... with 266 more rows
…
-   no subscales, 1 item to reverse

``` r
scale_workload_clean <- cleanQuestionnaire(data = scale_workload, subjectCol = 1, scaleName = "workload", scaleMin = 1, scaleMax = 21, itemsToReverse = c(4), checkReliability = T)
```

Check results

``` r
scale_workload_clean$wide
```

    ## Source: local data table [276 x 2]
    ## 
    ## # A tibble: 276 x 2
    ##       id workload_m_overall
    ##  * <dbl>              <dbl>
    ##  1     1              14.7 
    ##  2     2              12.2 
    ##  3     3               7.83
    ##  4     4               8.83
    ##  5     5               3.67
    ##  6     6               7.5 
    ##  7     7               7.67
    ##  8     8               5   
    ##  9     9               8   
    ## 10    10              10.5 
    ## # ... with 266 more rows

``` r
scale_workload_clean$long
```

    ## Source: local data table [276 x 6]
    ## 
    ## # A tibble: 276 x 6
    ##       id workload_m workload_stdev workload_rge workload_items
    ##    <dbl>      <dbl>          <dbl>        <dbl>          <int>
    ##  1     1      14.7            3.98           11              6
    ##  2     2      12.2            5.64           15              6
    ##  3     3       7.83           5.88           15              6
    ##  4     4       8.83           7.28           18              6
    ##  5     5       3.67           2.42            6              6
    ##  6     6       7.5            5.50           12              6
    ##  7     7       7.67           5.75           14              6
    ##  8     8       5              3.95            9              6
    ##  9     9       8              5.66           13              6
    ## 10    10      10.5            5.21           12              6
    ## # ... with 266 more rows, and 1 more variable: workload_subscale <chr>
…
Joining and saving wide data from multiple scales
-------------------------------------------------

Use `left_join()` to join two scales (both are wide form)

``` r
joined <- left_join(scale_implicitBeliefs_clean$wide, scale_workload_clean$wide, by = 'id')
joined
```

    ## Source: local data table [276 x 5]
    ## 
    ## # A tibble: 276 x 5
    ##       id implicitBeliefs_m_… implicitBeliefs_m_imp… implicitBeliefs_m_imp…
    ##    <dbl>               <dbl>                  <dbl>                  <dbl>
    ##  1     1                5.5                    5                      6   
    ##  2     2                1.67                   1.67                   1.67
    ##  3     3                2.33                   2                      2.67
    ##  4     4                3.5                    3.33                   3.67
    ##  5     5                4                      4                      4   
    ##  6     6                1                      1                      1   
    ##  7     7                2.17                   2.33                   2   
    ##  8     8                4                      4                      4   
    ##  9     9                3                      2.67                   3.33
    ## 10    10                3.17                   3                      3.33
    ## # ... with 266 more rows, and 1 more variable: workload_m_overall <dbl>
…
