…
MANOVA
------

Let's use a different dataset. `iris`, a famous dataset that comes with R. Type `?iris` in your console for more information about this dataset.

``` r
irisDT <- tbl_dt(iris) # convert to data.table and tibble
irisDT # wide form data
```

    ## Source: local data table [150 x 5]
    ## 
    ## # A tibble: 150 x 5
    ##    Sepal.Length Sepal.Width Petal.Length Petal.Width Species
    ##           <dbl>       <dbl>        <dbl>       <dbl> <fct>  
    ##  1          5.1         3.5          1.4         0.2 setosa 
    ##  2          4.9         3            1.4         0.2 setosa 
    ##  3          4.7         3.2          1.3         0.2 setosa 
    ##  4          4.6         3.1          1.5         0.2 setosa 
    ##  5          5           3.6          1.4         0.2 setosa 
    ##  6          5.4         3.9          1.7         0.4 setosa 
    ##  7          4.6         3.4          1.4         0.3 setosa 
    ##  8          5           3.4          1.5         0.2 setosa 
    ##  9          4.4         2.9          1.4         0.2 setosa 
    ## 10          4.9         3.1          1.5         0.1 setosa 
    ## # ... with 140 more rows
…
Data information

-   ID variable: Chick (50 chicks)
-   outcome/dependent variable: weight (weight of Chick) (**within**-subjects variable)
-   predictor/indepedent variable: Diet (diet each Chick was assigned to) (**between**-subjects variable)

``` r
cw # weight of 50 chicks are different times, on different diets
```

    ## Source: local data table [578 x 4]
    ## 
    ## # A tibble: 578 x 4
    ##    weight  Time Chick Diet 
    ##     <dbl> <dbl> <ord> <fct>
    ##  1     42     0 1     1    
    ##  2     51     2 1     1    
    ##  3     59     4 1     1    
    ##  4     64     6 1     1    
    ##  5     76     8 1     1    
    ##  6     93    10 1     1    
    ##  7    106    12 1     1    
    ##  8    125    14 1     1    
    ##  9    149    16 1     1    
    ## 10    171    18 1     1    
    ## # ... with 568 more rows
…
