…
How's the output different from the one above?

``` r
df3 # tbl_dt(fread("./Data/Orange.csv")) # tbl_dt() from library(dtplyr)
```

    ## Source: local data table [35 x 3]
    ## 
    ## # A tibble: 35 x 3
    ##     Tree   age circumference
    ##    <int> <int>         <int>
    ##  1     1   118            30
    ##  2     1   484            58
    ##  3     1   664            87
    ##  4     1  1004           115
    ##  5     1  1231           120
    ##  6     1  1372           142
    ##  7     1  1582           145
    ##  8     2   118            33
    ##  9     2   484            69
    ## 10     2   664           111
    ## # ... with 25 more rows
…
